^C:\USERS\STEPHEN\DOCUMENTS\,ASTEPHEN_OTHER\QA\SJD_MODERN_EXPRESSIVE_CPP\QAMECPP_LABS\NANA\SOURCE\ANY.CPP
/c /ZI /JMC /nologo /W3 /WX- /diagnostics:classic /Od /D _DEBUG /D _LIB /D _UNICODE /D UNICODE /Gm- /EHsc /RTC1 /MTd /GS /fp:precise /Zc:wchar_t /Zc:forScope /Zc:inline /Fo"..\..\..\TEMP\NANA\V141_DEBUG_X64\\" /Fd"..\..\..\TEMP\NANA\V141_DEBUG_X64\NANA.PDB" /Gd /TP /FC C:\USERS\STEPHEN\DOCUMENTS\,ASTEPHEN_OTHER\QA\SJD_MODERN_EXPRESSIVE_CPP\QAMECPP_LABS\NANA\SOURCE\ANY.CPP
^C:\USERS\STEPHEN\DOCUMENTS\,ASTEPHEN_OTHER\QA\SJD_MODERN_EXPRESSIVE_CPP\QAMECPP_LABS\NANA\SOURCE\AUDIO\DETAIL\AUDIO_DEVICE.CPP
/c /ZI /JMC /nologo /W3 /WX- /diagnostics:classic /Od /D _DEBUG /D _LIB /D _UNICODE /D UNICODE /Gm- /EHsc /RTC1 /MTd /GS /fp:precise /Zc:wchar_t /Zc:forScope /Zc:inline /Fo"..\..\..\TEMP\NANA\V141_DEBUG_X64\\" /Fd"..\..\..\TEMP\NANA\V141_DEBUG_X64\NANA.PDB" /Gd /TP /FC C:\USERS\STEPHEN\DOCUMENTS\,ASTEPHEN_OTHER\QA\SJD_MODERN_EXPRESSIVE_CPP\QAMECPP_LABS\NANA\SOURCE\AUDIO\DETAIL\AUDIO_DEVICE.CPP
^C:\USERS\STEPHEN\DOCUMENTS\,ASTEPHEN_OTHER\QA\SJD_MODERN_EXPRESSIVE_CPP\QAMECPP_LABS\NANA\SOURCE\AUDIO\DETAIL\AUDIO_STREAM.CPP
/c /ZI /JMC /nologo /W3 /WX- /diagnostics:classic /Od /D _DEBUG /D _LIB /D _UNICODE /D UNICODE /Gm- /EHsc /RTC1 /MTd /GS /fp:precise /Zc:wchar_t /Zc:forScope /Zc:inline /Fo"..\..\..\TEMP\NANA\V141_DEBUG_X64\\" /Fd"..\..\..\TEMP\NANA\V141_DEBUG_X64\NANA.PDB" /Gd /TP /FC C:\USERS\STEPHEN\DOCUMENTS\,ASTEPHEN_OTHER\QA\SJD_MODERN_EXPRESSIVE_CPP\QAMECPP_LABS\NANA\SOURCE\AUDIO\DETAIL\AUDIO_STREAM.CPP
^C:\USERS\STEPHEN\DOCUMENTS\,ASTEPHEN_OTHER\QA\SJD_MODERN_EXPRESSIVE_CPP\QAMECPP_LABS\NANA\SOURCE\AUDIO\DETAIL\BUFFER_PREPARATION.CPP
/c /ZI /JMC /nologo /W3 /WX- /diagnostics:classic /Od /D _DEBUG /D _LIB /D _UNICODE /D UNICODE /Gm- /EHsc /RTC1 /MTd /GS /fp:precise /Zc:wchar_t /Zc:forScope /Zc:inline /Fo"..\..\..\TEMP\NANA\V141_DEBUG_X64\\" /Fd"..\..\..\TEMP\NANA\V141_DEBUG_X64\NANA.PDB" /Gd /TP /FC C:\USERS\STEPHEN\DOCUMENTS\,ASTEPHEN_OTHER\QA\SJD_MODERN_EXPRESSIVE_CPP\QAMECPP_LABS\NANA\SOURCE\AUDIO\DETAIL\BUFFER_PREPARATION.CPP
^C:\USERS\STEPHEN\DOCUMENTS\,ASTEPHEN_OTHER\QA\SJD_MODERN_EXPRESSIVE_CPP\QAMECPP_LABS\NANA\SOURCE\AUDIO\PLAYER.CPP
/c /ZI /JMC /nologo /W3 /WX- /diagnostics:classic /Od /D _DEBUG /D _LIB /D _UNICODE /D UNICODE /Gm- /EHsc /RTC1 /MTd /GS /fp:precise /Zc:wchar_t /Zc:forScope /Zc:inline /Fo"..\..\..\TEMP\NANA\V141_DEBUG_X64\\" /Fd"..\..\..\TEMP\NANA\V141_DEBUG_X64\NANA.PDB" /Gd /TP /FC C:\USERS\STEPHEN\DOCUMENTS\,ASTEPHEN_OTHER\QA\SJD_MODERN_EXPRESSIVE_CPP\QAMECPP_LABS\NANA\SOURCE\AUDIO\PLAYER.CPP
^C:\USERS\STEPHEN\DOCUMENTS\,ASTEPHEN_OTHER\QA\SJD_MODERN_EXPRESSIVE_CPP\QAMECPP_LABS\NANA\SOURCE\BASIC_TYPES.CPP
/c /ZI /JMC /nologo /W3 /WX- /diagnostics:classic /Od /D _DEBUG /D _LIB /D _UNICODE /D UNICODE /Gm- /EHsc /RTC1 /MTd /GS /fp:precise /Zc:wchar_t /Zc:forScope /Zc:inline /Fo"..\..\..\TEMP\NANA\V141_DEBUG_X64\\" /Fd"..\..\..\TEMP\NANA\V141_DEBUG_X64\NANA.PDB" /Gd /TP /FC C:\USERS\STEPHEN\DOCUMENTS\,ASTEPHEN_OTHER\QA\SJD_MODERN_EXPRESSIVE_CPP\QAMECPP_LABS\NANA\SOURCE\BASIC_TYPES.CPP
^C:\USERS\STEPHEN\DOCUMENTS\,ASTEPHEN_OTHER\QA\SJD_MODERN_EXPRESSIVE_CPP\QAMECPP_LABS\NANA\SOURCE\CHARSET.CPP
/c /ZI /JMC /nologo /W3 /WX- /diagnostics:classic /Od /D _DEBUG /D _LIB /D _UNICODE /D UNICODE /Gm- /EHsc /RTC1 /MTd /GS /fp:precise /Zc:wchar_t /Zc:forScope /Zc:inline /Fo"..\..\..\TEMP\NANA\V141_DEBUG_X64\\" /Fd"..\..\..\TEMP\NANA\V141_DEBUG_X64\NANA.PDB" /Gd /TP /FC C:\USERS\STEPHEN\DOCUMENTS\,ASTEPHEN_OTHER\QA\SJD_MODERN_EXPRESSIVE_CPP\QAMECPP_LABS\NANA\SOURCE\CHARSET.CPP
^C:\USERS\STEPHEN\DOCUMENTS\,ASTEPHEN_OTHER\QA\SJD_MODERN_EXPRESSIVE_CPP\QAMECPP_LABS\NANA\SOURCE\DATETIME.CPP
/c /ZI /JMC /nologo /W3 /WX- /diagnostics:classic /Od /D _DEBUG /D _LIB /D _UNICODE /D UNICODE /Gm- /EHsc /RTC1 /MTd /GS /fp:precise /Zc:wchar_t /Zc:forScope /Zc:inline /Fo"..\..\..\TEMP\NANA\V141_DEBUG_X64\\" /Fd"..\..\..\TEMP\NANA\V141_DEBUG_X64\NANA.PDB" /Gd /TP /FC C:\USERS\STEPHEN\DOCUMENTS\,ASTEPHEN_OTHER\QA\SJD_MODERN_EXPRESSIVE_CPP\QAMECPP_LABS\NANA\SOURCE\DATETIME.CPP
^C:\USERS\STEPHEN\DOCUMENTS\,ASTEPHEN_OTHER\QA\SJD_MODERN_EXPRESSIVE_CPP\QAMECPP_LABS\NANA\SOURCE\DEPLOY.CPP
/c /ZI /JMC /nologo /W3 /WX- /diagnostics:classic /Od /D _DEBUG /D _LIB /D _UNICODE /D UNICODE /Gm- /EHsc /RTC1 /MTd /GS /fp:precise /Zc:wchar_t /Zc:forScope /Zc:inline /Fo"..\..\..\TEMP\NANA\V141_DEBUG_X64\\" /Fd"..\..\..\TEMP\NANA\V141_DEBUG_X64\NANA.PDB" /Gd /TP /FC C:\USERS\STEPHEN\DOCUMENTS\,ASTEPHEN_OTHER\QA\SJD_MODERN_EXPRESSIVE_CPP\QAMECPP_LABS\NANA\SOURCE\DEPLOY.CPP
^C:\USERS\STEPHEN\DOCUMENTS\,ASTEPHEN_OTHER\QA\SJD_MODERN_EXPRESSIVE_CPP\QAMECPP_LABS\NANA\SOURCE\DETAIL\PLATFORM_ABSTRACTION.CPP
/c /ZI /JMC /nologo /W3 /WX- /diagnostics:classic /Od /D _DEBUG /D _LIB /D _UNICODE /D UNICODE /Gm- /EHsc /RTC1 /MTd /GS /fp:precise /Zc:wchar_t /Zc:forScope /Zc:inline /Fo"..\..\..\TEMP\NANA\V141_DEBUG_X64\\" /Fd"..\..\..\TEMP\NANA\V141_DEBUG_X64\NANA.PDB" /Gd /TP /FC C:\USERS\STEPHEN\DOCUMENTS\,ASTEPHEN_OTHER\QA\SJD_MODERN_EXPRESSIVE_CPP\QAMECPP_LABS\NANA\SOURCE\DETAIL\PLATFORM_ABSTRACTION.CPP
^C:\USERS\STEPHEN\DOCUMENTS\,ASTEPHEN_OTHER\QA\SJD_MODERN_EXPRESSIVE_CPP\QAMECPP_LABS\NANA\SOURCE\DETAIL\PLATFORM_SPEC_WINDOWS.CPP
/c /ZI /JMC /nologo /W3 /WX- /diagnostics:classic /Od /D _DEBUG /D _LIB /D _UNICODE /D UNICODE /Gm- /EHsc /RTC1 /MTd /GS /fp:precise /Zc:wchar_t /Zc:forScope /Zc:inline /Fo"..\..\..\TEMP\NANA\V141_DEBUG_X64\\" /Fd"..\..\..\TEMP\NANA\V141_DEBUG_X64\NANA.PDB" /Gd /TP /FC C:\USERS\STEPHEN\DOCUMENTS\,ASTEPHEN_OTHER\QA\SJD_MODERN_EXPRESSIVE_CPP\QAMECPP_LABS\NANA\SOURCE\DETAIL\PLATFORM_SPEC_WINDOWS.CPP
^C:\USERS\STEPHEN\DOCUMENTS\,ASTEPHEN_OTHER\QA\SJD_MODERN_EXPRESSIVE_CPP\QAMECPP_LABS\NANA\SOURCE\FILESYSTEM\FILESYSTEM.CPP
/c /ZI /JMC /nologo /W3 /WX- /diagnostics:classic /Od /D _DEBUG /D _LIB /D _UNICODE /D UNICODE /Gm- /EHsc /RTC1 /MTd /GS /fp:precise /Zc:wchar_t /Zc:forScope /Zc:inline /Fo"..\..\..\TEMP\NANA\V141_DEBUG_X64\\" /Fd"..\..\..\TEMP\NANA\V141_DEBUG_X64\NANA.PDB" /Gd /TP /FC C:\USERS\STEPHEN\DOCUMENTS\,ASTEPHEN_OTHER\QA\SJD_MODERN_EXPRESSIVE_CPP\QAMECPP_LABS\NANA\SOURCE\FILESYSTEM\FILESYSTEM.CPP
^C:\USERS\STEPHEN\DOCUMENTS\,ASTEPHEN_OTHER\QA\SJD_MODERN_EXPRESSIVE_CPP\QAMECPP_LABS\NANA\SOURCE\GUI\ANIMATION.CPP
/c /ZI /JMC /nologo /W3 /WX- /diagnostics:classic /Od /D _DEBUG /D _LIB /D _UNICODE /D UNICODE /Gm- /EHsc /RTC1 /MTd /GS /fp:precise /Zc:wchar_t /Zc:forScope /Zc:inline /Fo"..\..\..\TEMP\NANA\V141_DEBUG_X64\\" /Fd"..\..\..\TEMP\NANA\V141_DEBUG_X64\NANA.PDB" /Gd /TP /FC C:\USERS\STEPHEN\DOCUMENTS\,ASTEPHEN_OTHER\QA\SJD_MODERN_EXPRESSIVE_CPP\QAMECPP_LABS\NANA\SOURCE\GUI\ANIMATION.CPP
^C:\USERS\STEPHEN\DOCUMENTS\,ASTEPHEN_OTHER\QA\SJD_MODERN_EXPRESSIVE_CPP\QAMECPP_LABS\NANA\SOURCE\GUI\BASIS.CPP
/c /ZI /JMC /nologo /W3 /WX- /diagnostics:classic /Od /D _DEBUG /D _LIB /D _UNICODE /D UNICODE /Gm- /EHsc /RTC1 /MTd /GS /fp:precise /Zc:wchar_t /Zc:forScope /Zc:inline /Fo"..\..\..\TEMP\NANA\V141_DEBUG_X64\\" /Fd"..\..\..\TEMP\NANA\V141_DEBUG_X64\NANA.PDB" /Gd /TP /FC C:\USERS\STEPHEN\DOCUMENTS\,ASTEPHEN_OTHER\QA\SJD_MODERN_EXPRESSIVE_CPP\QAMECPP_LABS\NANA\SOURCE\GUI\BASIS.CPP
^C:\USERS\STEPHEN\DOCUMENTS\,ASTEPHEN_OTHER\QA\SJD_MODERN_EXPRESSIVE_CPP\QAMECPP_LABS\NANA\SOURCE\GUI\DETAIL\BASIC_WINDOW.CPP
/c /ZI /JMC /nologo /W3 /WX- /diagnostics:classic /Od /D _DEBUG /D _LIB /D _UNICODE /D UNICODE /Gm- /EHsc /RTC1 /MTd /GS /fp:precise /Zc:wchar_t /Zc:forScope /Zc:inline /Fo"..\..\..\TEMP\NANA\V141_DEBUG_X64\\" /Fd"..\..\..\TEMP\NANA\V141_DEBUG_X64\NANA.PDB" /Gd /TP /FC C:\USERS\STEPHEN\DOCUMENTS\,ASTEPHEN_OTHER\QA\SJD_MODERN_EXPRESSIVE_CPP\QAMECPP_LABS\NANA\SOURCE\GUI\DETAIL\BASIC_WINDOW.CPP
^C:\USERS\STEPHEN\DOCUMENTS\,ASTEPHEN_OTHER\QA\SJD_MODERN_EXPRESSIVE_CPP\QAMECPP_LABS\NANA\SOURCE\GUI\DETAIL\BEDROCK_PI.CPP
/c /ZI /JMC /nologo /W3 /WX- /diagnostics:classic /Od /D _DEBUG /D _LIB /D _UNICODE /D UNICODE /Gm- /EHsc /RTC1 /MTd /GS /fp:precise /Zc:wchar_t /Zc:forScope /Zc:inline /Fo"..\..\..\TEMP\NANA\V141_DEBUG_X64\\" /Fd"..\..\..\TEMP\NANA\V141_DEBUG_X64\NANA.PDB" /Gd /TP /FC C:\USERS\STEPHEN\DOCUMENTS\,ASTEPHEN_OTHER\QA\SJD_MODERN_EXPRESSIVE_CPP\QAMECPP_LABS\NANA\SOURCE\GUI\DETAIL\BEDROCK_PI.CPP
^C:\USERS\STEPHEN\DOCUMENTS\,ASTEPHEN_OTHER\QA\SJD_MODERN_EXPRESSIVE_CPP\QAMECPP_LABS\NANA\SOURCE\GUI\DETAIL\BEDROCK_WINDOWS.CPP
/c /ZI /JMC /nologo /W3 /WX- /diagnostics:classic /Od /D _DEBUG /D _LIB /D _UNICODE /D UNICODE /Gm- /EHsc /RTC1 /MTd /GS /fp:precise /Zc:wchar_t /Zc:forScope /Zc:inline /Fo"..\..\..\TEMP\NANA\V141_DEBUG_X64\\" /Fd"..\..\..\TEMP\NANA\V141_DEBUG_X64\NANA.PDB" /Gd /TP /FC C:\USERS\STEPHEN\DOCUMENTS\,ASTEPHEN_OTHER\QA\SJD_MODERN_EXPRESSIVE_CPP\QAMECPP_LABS\NANA\SOURCE\GUI\DETAIL\BEDROCK_WINDOWS.CPP
^C:\USERS\STEPHEN\DOCUMENTS\,ASTEPHEN_OTHER\QA\SJD_MODERN_EXPRESSIVE_CPP\QAMECPP_LABS\NANA\SOURCE\GUI\DETAIL\COLOR_SCHEMES.CPP
/c /ZI /JMC /nologo /W3 /WX- /diagnostics:classic /Od /D _DEBUG /D _LIB /D _UNICODE /D UNICODE /Gm- /EHsc /RTC1 /MTd /GS /fp:precise /Zc:wchar_t /Zc:forScope /Zc:inline /Fo"..\..\..\TEMP\NANA\V141_DEBUG_X64\\" /Fd"..\..\..\TEMP\NANA\V141_DEBUG_X64\NANA.PDB" /Gd /TP /FC C:\USERS\STEPHEN\DOCUMENTS\,ASTEPHEN_OTHER\QA\SJD_MODERN_EXPRESSIVE_CPP\QAMECPP_LABS\NANA\SOURCE\GUI\DETAIL\COLOR_SCHEMES.CPP
^C:\USERS\STEPHEN\DOCUMENTS\,ASTEPHEN_OTHER\QA\SJD_MODERN_EXPRESSIVE_CPP\QAMECPP_LABS\NANA\SOURCE\GUI\DETAIL\DRAWER.CPP
/c /ZI /JMC /nologo /W3 /WX- /diagnostics:classic /Od /D _DEBUG /D _LIB /D _UNICODE /D UNICODE /Gm- /EHsc /RTC1 /MTd /GS /fp:precise /Zc:wchar_t /Zc:forScope /Zc:inline /Fo"..\..\..\TEMP\NANA\V141_DEBUG_X64\\" /Fd"..\..\..\TEMP\NANA\V141_DEBUG_X64\NANA.PDB" /Gd /TP /FC C:\USERS\STEPHEN\DOCUMENTS\,ASTEPHEN_OTHER\QA\SJD_MODERN_EXPRESSIVE_CPP\QAMECPP_LABS\NANA\SOURCE\GUI\DETAIL\DRAWER.CPP
^C:\USERS\STEPHEN\DOCUMENTS\,ASTEPHEN_OTHER\QA\SJD_MODERN_EXPRESSIVE_CPP\QAMECPP_LABS\NANA\SOURCE\GUI\DETAIL\ELEMENT_STORE.CPP
/c /ZI /JMC /nologo /W3 /WX- /diagnostics:classic /Od /D _DEBUG /D _LIB /D _UNICODE /D UNICODE /Gm- /EHsc /RTC1 /MTd /GS /fp:precise /Zc:wchar_t /Zc:forScope /Zc:inline /Fo"..\..\..\TEMP\NANA\V141_DEBUG_X64\\" /Fd"..\..\..\TEMP\NANA\V141_DEBUG_X64\NANA.PDB" /Gd /TP /FC C:\USERS\STEPHEN\DOCUMENTS\,ASTEPHEN_OTHER\QA\SJD_MODERN_EXPRESSIVE_CPP\QAMECPP_LABS\NANA\SOURCE\GUI\DETAIL\ELEMENT_STORE.CPP
^C:\USERS\STEPHEN\DOCUMENTS\,ASTEPHEN_OTHER\QA\SJD_MODERN_EXPRESSIVE_CPP\QAMECPP_LABS\NANA\SOURCE\GUI\DETAIL\EVENTS_OPERATION.CPP
/c /ZI /JMC /nologo /W3 /WX- /diagnostics:classic /Od /D _DEBUG /D _LIB /D _UNICODE /D UNICODE /Gm- /EHsc /RTC1 /MTd /GS /fp:precise /Zc:wchar_t /Zc:forScope /Zc:inline /Fo"..\..\..\TEMP\NANA\V141_DEBUG_X64\\" /Fd"..\..\..\TEMP\NANA\V141_DEBUG_X64\NANA.PDB" /Gd /TP /FC C:\USERS\STEPHEN\DOCUMENTS\,ASTEPHEN_OTHER\QA\SJD_MODERN_EXPRESSIVE_CPP\QAMECPP_LABS\NANA\SOURCE\GUI\DETAIL\EVENTS_OPERATION.CPP
^C:\USERS\STEPHEN\DOCUMENTS\,ASTEPHEN_OTHER\QA\SJD_MODERN_EXPRESSIVE_CPP\QAMECPP_LABS\NANA\SOURCE\GUI\DETAIL\NATIVE_WINDOW_INTERFACE.CPP
/c /ZI /JMC /nologo /W3 /WX- /diagnostics:classic /Od /D _DEBUG /D _LIB /D _UNICODE /D UNICODE /Gm- /EHsc /RTC1 /MTd /GS /fp:precise /Zc:wchar_t /Zc:forScope /Zc:inline /Fo"..\..\..\TEMP\NANA\V141_DEBUG_X64\\" /Fd"..\..\..\TEMP\NANA\V141_DEBUG_X64\NANA.PDB" /Gd /TP /FC C:\USERS\STEPHEN\DOCUMENTS\,ASTEPHEN_OTHER\QA\SJD_MODERN_EXPRESSIVE_CPP\QAMECPP_LABS\NANA\SOURCE\GUI\DETAIL\NATIVE_WINDOW_INTERFACE.CPP
^C:\USERS\STEPHEN\DOCUMENTS\,ASTEPHEN_OTHER\QA\SJD_MODERN_EXPRESSIVE_CPP\QAMECPP_LABS\NANA\SOURCE\GUI\DETAIL\WINDOW_LAYOUT.CPP
/c /ZI /JMC /nologo /W3 /WX- /diagnostics:classic /Od /D _DEBUG /D _LIB /D _UNICODE /D UNICODE /Gm- /EHsc /RTC1 /MTd /GS /fp:precise /Zc:wchar_t /Zc:forScope /Zc:inline /Fo"..\..\..\TEMP\NANA\V141_DEBUG_X64\\" /Fd"..\..\..\TEMP\NANA\V141_DEBUG_X64\NANA.PDB" /Gd /TP /FC C:\USERS\STEPHEN\DOCUMENTS\,ASTEPHEN_OTHER\QA\SJD_MODERN_EXPRESSIVE_CPP\QAMECPP_LABS\NANA\SOURCE\GUI\DETAIL\WINDOW_LAYOUT.CPP
^C:\USERS\STEPHEN\DOCUMENTS\,ASTEPHEN_OTHER\QA\SJD_MODERN_EXPRESSIVE_CPP\QAMECPP_LABS\NANA\SOURCE\GUI\DETAIL\WINDOW_MANAGER.CPP
/c /ZI /JMC /nologo /W3 /WX- /diagnostics:classic /Od /D _DEBUG /D _LIB /D _UNICODE /D UNICODE /Gm- /EHsc /RTC1 /MTd /GS /fp:precise /Zc:wchar_t /Zc:forScope /Zc:inline /Fo"..\..\..\TEMP\NANA\V141_DEBUG_X64\\" /Fd"..\..\..\TEMP\NANA\V141_DEBUG_X64\NANA.PDB" /Gd /TP /FC C:\USERS\STEPHEN\DOCUMENTS\,ASTEPHEN_OTHER\QA\SJD_MODERN_EXPRESSIVE_CPP\QAMECPP_LABS\NANA\SOURCE\GUI\DETAIL\WINDOW_MANAGER.CPP
^C:\USERS\STEPHEN\DOCUMENTS\,ASTEPHEN_OTHER\QA\SJD_MODERN_EXPRESSIVE_CPP\QAMECPP_LABS\NANA\SOURCE\GUI\DRAGGER.CPP
/c /ZI /JMC /nologo /W3 /WX- /diagnostics:classic /Od /D _DEBUG /D _LIB /D _UNICODE /D UNICODE /Gm- /EHsc /RTC1 /MTd /GS /fp:precise /Zc:wchar_t /Zc:forScope /Zc:inline /Fo"..\..\..\TEMP\NANA\V141_DEBUG_X64\\" /Fd"..\..\..\TEMP\NANA\V141_DEBUG_X64\NANA.PDB" /Gd /TP /FC C:\USERS\STEPHEN\DOCUMENTS\,ASTEPHEN_OTHER\QA\SJD_MODERN_EXPRESSIVE_CPP\QAMECPP_LABS\NANA\SOURCE\GUI\DRAGGER.CPP
^C:\USERS\STEPHEN\DOCUMENTS\,ASTEPHEN_OTHER\QA\SJD_MODERN_EXPRESSIVE_CPP\QAMECPP_LABS\NANA\SOURCE\GUI\DRAWING.CPP
/c /ZI /JMC /nologo /W3 /WX- /diagnostics:classic /Od /D _DEBUG /D _LIB /D _UNICODE /D UNICODE /Gm- /EHsc /RTC1 /MTd /GS /fp:precise /Zc:wchar_t /Zc:forScope /Zc:inline /Fo"..\..\..\TEMP\NANA\V141_DEBUG_X64\\" /Fd"..\..\..\TEMP\NANA\V141_DEBUG_X64\NANA.PDB" /Gd /TP /FC C:\USERS\STEPHEN\DOCUMENTS\,ASTEPHEN_OTHER\QA\SJD_MODERN_EXPRESSIVE_CPP\QAMECPP_LABS\NANA\SOURCE\GUI\DRAWING.CPP
^C:\USERS\STEPHEN\DOCUMENTS\,ASTEPHEN_OTHER\QA\SJD_MODERN_EXPRESSIVE_CPP\QAMECPP_LABS\NANA\SOURCE\GUI\EFFECTS.CPP
/c /ZI /JMC /nologo /W3 /WX- /diagnostics:classic /Od /D _DEBUG /D _LIB /D _UNICODE /D UNICODE /Gm- /EHsc /RTC1 /MTd /GS /fp:precise /Zc:wchar_t /Zc:forScope /Zc:inline /Fo"..\..\..\TEMP\NANA\V141_DEBUG_X64\\" /Fd"..\..\..\TEMP\NANA\V141_DEBUG_X64\NANA.PDB" /Gd /TP /FC C:\USERS\STEPHEN\DOCUMENTS\,ASTEPHEN_OTHER\QA\SJD_MODERN_EXPRESSIVE_CPP\QAMECPP_LABS\NANA\SOURCE\GUI\EFFECTS.CPP
^C:\USERS\STEPHEN\DOCUMENTS\,ASTEPHEN_OTHER\QA\SJD_MODERN_EXPRESSIVE_CPP\QAMECPP_LABS\NANA\SOURCE\GUI\ELEMENT.CPP
/c /ZI /JMC /nologo /W3 /WX- /diagnostics:classic /Od /D _DEBUG /D _LIB /D _UNICODE /D UNICODE /Gm- /EHsc /RTC1 /MTd /GS /fp:precise /Zc:wchar_t /Zc:forScope /Zc:inline /Fo"..\..\..\TEMP\NANA\V141_DEBUG_X64\\" /Fd"..\..\..\TEMP\NANA\V141_DEBUG_X64\NANA.PDB" /Gd /TP /FC C:\USERS\STEPHEN\DOCUMENTS\,ASTEPHEN_OTHER\QA\SJD_MODERN_EXPRESSIVE_CPP\QAMECPP_LABS\NANA\SOURCE\GUI\ELEMENT.CPP
^C:\USERS\STEPHEN\DOCUMENTS\,ASTEPHEN_OTHER\QA\SJD_MODERN_EXPRESSIVE_CPP\QAMECPP_LABS\NANA\SOURCE\GUI\FILEBOX.CPP
/c /ZI /JMC /nologo /W3 /WX- /diagnostics:classic /Od /D _DEBUG /D _LIB /D _UNICODE /D UNICODE /Gm- /EHsc /RTC1 /MTd /GS /fp:precise /Zc:wchar_t /Zc:forScope /Zc:inline /Fo"..\..\..\TEMP\NANA\V141_DEBUG_X64\\" /Fd"..\..\..\TEMP\NANA\V141_DEBUG_X64\NANA.PDB" /Gd /TP /FC C:\USERS\STEPHEN\DOCUMENTS\,ASTEPHEN_OTHER\QA\SJD_MODERN_EXPRESSIVE_CPP\QAMECPP_LABS\NANA\SOURCE\GUI\FILEBOX.CPP
^C:\USERS\STEPHEN\DOCUMENTS\,ASTEPHEN_OTHER\QA\SJD_MODERN_EXPRESSIVE_CPP\QAMECPP_LABS\NANA\SOURCE\GUI\LAYOUT_UTILITY.CPP
/c /ZI /JMC /nologo /W3 /WX- /diagnostics:classic /Od /D _DEBUG /D _LIB /D _UNICODE /D UNICODE /Gm- /EHsc /RTC1 /MTd /GS /fp:precise /Zc:wchar_t /Zc:forScope /Zc:inline /Fo"..\..\..\TEMP\NANA\V141_DEBUG_X64\\" /Fd"..\..\..\TEMP\NANA\V141_DEBUG_X64\NANA.PDB" /Gd /TP /FC C:\USERS\STEPHEN\DOCUMENTS\,ASTEPHEN_OTHER\QA\SJD_MODERN_EXPRESSIVE_CPP\QAMECPP_LABS\NANA\SOURCE\GUI\LAYOUT_UTILITY.CPP
^C:\USERS\STEPHEN\DOCUMENTS\,ASTEPHEN_OTHER\QA\SJD_MODERN_EXPRESSIVE_CPP\QAMECPP_LABS\NANA\SOURCE\GUI\MSGBOX.CPP
/c /ZI /JMC /nologo /W3 /WX- /diagnostics:classic /Od /D _DEBUG /D _LIB /D _UNICODE /D UNICODE /Gm- /EHsc /RTC1 /MTd /GS /fp:precise /Zc:wchar_t /Zc:forScope /Zc:inline /Fo"..\..\..\TEMP\NANA\V141_DEBUG_X64\\" /Fd"..\..\..\TEMP\NANA\V141_DEBUG_X64\NANA.PDB" /Gd /TP /FC C:\USERS\STEPHEN\DOCUMENTS\,ASTEPHEN_OTHER\QA\SJD_MODERN_EXPRESSIVE_CPP\QAMECPP_LABS\NANA\SOURCE\GUI\MSGBOX.CPP
^C:\USERS\STEPHEN\DOCUMENTS\,ASTEPHEN_OTHER\QA\SJD_MODERN_EXPRESSIVE_CPP\QAMECPP_LABS\NANA\SOURCE\GUI\NOTIFIER.CPP
/c /ZI /JMC /nologo /W3 /WX- /diagnostics:classic /Od /D _DEBUG /D _LIB /D _UNICODE /D UNICODE /Gm- /EHsc /RTC1 /MTd /GS /fp:precise /Zc:wchar_t /Zc:forScope /Zc:inline /Fo"..\..\..\TEMP\NANA\V141_DEBUG_X64\\" /Fd"..\..\..\TEMP\NANA\V141_DEBUG_X64\NANA.PDB" /Gd /TP /FC C:\USERS\STEPHEN\DOCUMENTS\,ASTEPHEN_OTHER\QA\SJD_MODERN_EXPRESSIVE_CPP\QAMECPP_LABS\NANA\SOURCE\GUI\NOTIFIER.CPP
^C:\USERS\STEPHEN\DOCUMENTS\,ASTEPHEN_OTHER\QA\SJD_MODERN_EXPRESSIVE_CPP\QAMECPP_LABS\NANA\SOURCE\GUI\PLACE.CPP
/c /ZI /JMC /nologo /W3 /WX- /diagnostics:classic /Od /D _DEBUG /D _LIB /D _UNICODE /D UNICODE /Gm- /EHsc /RTC1 /MTd /GS /fp:precise /Zc:wchar_t /Zc:forScope /Zc:inline /Fo"..\..\..\TEMP\NANA\V141_DEBUG_X64\\" /Fd"..\..\..\TEMP\NANA\V141_DEBUG_X64\NANA.PDB" /Gd /TP /FC C:\USERS\STEPHEN\DOCUMENTS\,ASTEPHEN_OTHER\QA\SJD_MODERN_EXPRESSIVE_CPP\QAMECPP_LABS\NANA\SOURCE\GUI\PLACE.CPP
^C:\USERS\STEPHEN\DOCUMENTS\,ASTEPHEN_OTHER\QA\SJD_MODERN_EXPRESSIVE_CPP\QAMECPP_LABS\NANA\SOURCE\GUI\PROGRAMMING_INTERFACE.CPP
/c /ZI /JMC /nologo /W3 /WX- /diagnostics:classic /Od /D _DEBUG /D _LIB /D _UNICODE /D UNICODE /Gm- /EHsc /RTC1 /MTd /GS /fp:precise /Zc:wchar_t /Zc:forScope /Zc:inline /Fo"..\..\..\TEMP\NANA\V141_DEBUG_X64\\" /Fd"..\..\..\TEMP\NANA\V141_DEBUG_X64\NANA.PDB" /Gd /TP /FC C:\USERS\STEPHEN\DOCUMENTS\,ASTEPHEN_OTHER\QA\SJD_MODERN_EXPRESSIVE_CPP\QAMECPP_LABS\NANA\SOURCE\GUI\PROGRAMMING_INTERFACE.CPP
^C:\USERS\STEPHEN\DOCUMENTS\,ASTEPHEN_OTHER\QA\SJD_MODERN_EXPRESSIVE_CPP\QAMECPP_LABS\NANA\SOURCE\GUI\SCREEN.CPP
/c /ZI /JMC /nologo /W3 /WX- /diagnostics:classic /Od /D _DEBUG /D _LIB /D _UNICODE /D UNICODE /Gm- /EHsc /RTC1 /MTd /GS /fp:precise /Zc:wchar_t /Zc:forScope /Zc:inline /Fo"..\..\..\TEMP\NANA\V141_DEBUG_X64\\" /Fd"..\..\..\TEMP\NANA\V141_DEBUG_X64\NANA.PDB" /Gd /TP /FC C:\USERS\STEPHEN\DOCUMENTS\,ASTEPHEN_OTHER\QA\SJD_MODERN_EXPRESSIVE_CPP\QAMECPP_LABS\NANA\SOURCE\GUI\SCREEN.CPP
^C:\USERS\STEPHEN\DOCUMENTS\,ASTEPHEN_OTHER\QA\SJD_MODERN_EXPRESSIVE_CPP\QAMECPP_LABS\NANA\SOURCE\GUI\STATE_CURSOR.CPP
/c /ZI /JMC /nologo /W3 /WX- /diagnostics:classic /Od /D _DEBUG /D _LIB /D _UNICODE /D UNICODE /Gm- /EHsc /RTC1 /MTd /GS /fp:precise /Zc:wchar_t /Zc:forScope /Zc:inline /Fo"..\..\..\TEMP\NANA\V141_DEBUG_X64\\" /Fd"..\..\..\TEMP\NANA\V141_DEBUG_X64\NANA.PDB" /Gd /TP /FC C:\USERS\STEPHEN\DOCUMENTS\,ASTEPHEN_OTHER\QA\SJD_MODERN_EXPRESSIVE_CPP\QAMECPP_LABS\NANA\SOURCE\GUI\STATE_CURSOR.CPP
^C:\USERS\STEPHEN\DOCUMENTS\,ASTEPHEN_OTHER\QA\SJD_MODERN_EXPRESSIVE_CPP\QAMECPP_LABS\NANA\SOURCE\GUI\TIMER.CPP
/c /ZI /JMC /nologo /W3 /WX- /diagnostics:classic /Od /D _DEBUG /D _LIB /D _UNICODE /D UNICODE /Gm- /EHsc /RTC1 /MTd /GS /fp:precise /Zc:wchar_t /Zc:forScope /Zc:inline /Fo"..\..\..\TEMP\NANA\V141_DEBUG_X64\\" /Fd"..\..\..\TEMP\NANA\V141_DEBUG_X64\NANA.PDB" /Gd /TP /FC C:\USERS\STEPHEN\DOCUMENTS\,ASTEPHEN_OTHER\QA\SJD_MODERN_EXPRESSIVE_CPP\QAMECPP_LABS\NANA\SOURCE\GUI\TIMER.CPP
^C:\USERS\STEPHEN\DOCUMENTS\,ASTEPHEN_OTHER\QA\SJD_MODERN_EXPRESSIVE_CPP\QAMECPP_LABS\NANA\SOURCE\GUI\TOOLTIP.CPP
/c /ZI /JMC /nologo /W3 /WX- /diagnostics:classic /Od /D _DEBUG /D _LIB /D _UNICODE /D UNICODE /Gm- /EHsc /RTC1 /MTd /GS /fp:precise /Zc:wchar_t /Zc:forScope /Zc:inline /Fo"..\..\..\TEMP\NANA\V141_DEBUG_X64\\" /Fd"..\..\..\TEMP\NANA\V141_DEBUG_X64\NANA.PDB" /Gd /TP /FC C:\USERS\STEPHEN\DOCUMENTS\,ASTEPHEN_OTHER\QA\SJD_MODERN_EXPRESSIVE_CPP\QAMECPP_LABS\NANA\SOURCE\GUI\TOOLTIP.CPP
^C:\USERS\STEPHEN\DOCUMENTS\,ASTEPHEN_OTHER\QA\SJD_MODERN_EXPRESSIVE_CPP\QAMECPP_LABS\NANA\SOURCE\GUI\WIDGETS\BUTTON.CPP
/c /ZI /JMC /nologo /W3 /WX- /diagnostics:classic /Od /D _DEBUG /D _LIB /D _UNICODE /D UNICODE /Gm- /EHsc /RTC1 /MTd /GS /fp:precise /Zc:wchar_t /Zc:forScope /Zc:inline /Fo"..\..\..\TEMP\NANA\V141_DEBUG_X64\\" /Fd"..\..\..\TEMP\NANA\V141_DEBUG_X64\NANA.PDB" /Gd /TP /FC C:\USERS\STEPHEN\DOCUMENTS\,ASTEPHEN_OTHER\QA\SJD_MODERN_EXPRESSIVE_CPP\QAMECPP_LABS\NANA\SOURCE\GUI\WIDGETS\BUTTON.CPP
^C:\USERS\STEPHEN\DOCUMENTS\,ASTEPHEN_OTHER\QA\SJD_MODERN_EXPRESSIVE_CPP\QAMECPP_LABS\NANA\SOURCE\GUI\WIDGETS\CATEGORIZE.CPP
/c /ZI /JMC /nologo /W3 /WX- /diagnostics:classic /Od /D _DEBUG /D _LIB /D _UNICODE /D UNICODE /Gm- /EHsc /RTC1 /MTd /GS /fp:precise /Zc:wchar_t /Zc:forScope /Zc:inline /Fo"..\..\..\TEMP\NANA\V141_DEBUG_X64\\" /Fd"..\..\..\TEMP\NANA\V141_DEBUG_X64\NANA.PDB" /Gd /TP /FC C:\USERS\STEPHEN\DOCUMENTS\,ASTEPHEN_OTHER\QA\SJD_MODERN_EXPRESSIVE_CPP\QAMECPP_LABS\NANA\SOURCE\GUI\WIDGETS\CATEGORIZE.CPP
^C:\USERS\STEPHEN\DOCUMENTS\,ASTEPHEN_OTHER\QA\SJD_MODERN_EXPRESSIVE_CPP\QAMECPP_LABS\NANA\SOURCE\GUI\WIDGETS\CHECKBOX.CPP
/c /ZI /JMC /nologo /W3 /WX- /diagnostics:classic /Od /D _DEBUG /D _LIB /D _UNICODE /D UNICODE /Gm- /EHsc /RTC1 /MTd /GS /fp:precise /Zc:wchar_t /Zc:forScope /Zc:inline /Fo"..\..\..\TEMP\NANA\V141_DEBUG_X64\\" /Fd"..\..\..\TEMP\NANA\V141_DEBUG_X64\NANA.PDB" /Gd /TP /FC C:\USERS\STEPHEN\DOCUMENTS\,ASTEPHEN_OTHER\QA\SJD_MODERN_EXPRESSIVE_CPP\QAMECPP_LABS\NANA\SOURCE\GUI\WIDGETS\CHECKBOX.CPP
^C:\USERS\STEPHEN\DOCUMENTS\,ASTEPHEN_OTHER\QA\SJD_MODERN_EXPRESSIVE_CPP\QAMECPP_LABS\NANA\SOURCE\GUI\WIDGETS\COMBOX.CPP
/c /ZI /JMC /nologo /W3 /WX- /diagnostics:classic /Od /D _DEBUG /D _LIB /D _UNICODE /D UNICODE /Gm- /EHsc /RTC1 /MTd /GS /fp:precise /Zc:wchar_t /Zc:forScope /Zc:inline /Fo"..\..\..\TEMP\NANA\V141_DEBUG_X64\\" /Fd"..\..\..\TEMP\NANA\V141_DEBUG_X64\NANA.PDB" /Gd /TP /FC C:\USERS\STEPHEN\DOCUMENTS\,ASTEPHEN_OTHER\QA\SJD_MODERN_EXPRESSIVE_CPP\QAMECPP_LABS\NANA\SOURCE\GUI\WIDGETS\COMBOX.CPP
^C:\USERS\STEPHEN\DOCUMENTS\,ASTEPHEN_OTHER\QA\SJD_MODERN_EXPRESSIVE_CPP\QAMECPP_LABS\NANA\SOURCE\GUI\WIDGETS\DATE_CHOOSER.CPP
/c /ZI /JMC /nologo /W3 /WX- /diagnostics:classic /Od /D _DEBUG /D _LIB /D _UNICODE /D UNICODE /Gm- /EHsc /RTC1 /MTd /GS /fp:precise /Zc:wchar_t /Zc:forScope /Zc:inline /Fo"..\..\..\TEMP\NANA\V141_DEBUG_X64\\" /Fd"..\..\..\TEMP\NANA\V141_DEBUG_X64\NANA.PDB" /Gd /TP /FC C:\USERS\STEPHEN\DOCUMENTS\,ASTEPHEN_OTHER\QA\SJD_MODERN_EXPRESSIVE_CPP\QAMECPP_LABS\NANA\SOURCE\GUI\WIDGETS\DATE_CHOOSER.CPP
^C:\USERS\STEPHEN\DOCUMENTS\,ASTEPHEN_OTHER\QA\SJD_MODERN_EXPRESSIVE_CPP\QAMECPP_LABS\NANA\SOURCE\GUI\WIDGETS\FLOAT_LISTBOX.CPP
/c /ZI /JMC /nologo /W3 /WX- /diagnostics:classic /Od /D _DEBUG /D _LIB /D _UNICODE /D UNICODE /Gm- /EHsc /RTC1 /MTd /GS /fp:precise /Zc:wchar_t /Zc:forScope /Zc:inline /Fo"..\..\..\TEMP\NANA\V141_DEBUG_X64\\" /Fd"..\..\..\TEMP\NANA\V141_DEBUG_X64\NANA.PDB" /Gd /TP /FC C:\USERS\STEPHEN\DOCUMENTS\,ASTEPHEN_OTHER\QA\SJD_MODERN_EXPRESSIVE_CPP\QAMECPP_LABS\NANA\SOURCE\GUI\WIDGETS\FLOAT_LISTBOX.CPP
^C:\USERS\STEPHEN\DOCUMENTS\,ASTEPHEN_OTHER\QA\SJD_MODERN_EXPRESSIVE_CPP\QAMECPP_LABS\NANA\SOURCE\GUI\WIDGETS\FORM.CPP
/c /ZI /JMC /nologo /W3 /WX- /diagnostics:classic /Od /D _DEBUG /D _LIB /D _UNICODE /D UNICODE /Gm- /EHsc /RTC1 /MTd /GS /fp:precise /Zc:wchar_t /Zc:forScope /Zc:inline /Fo"..\..\..\TEMP\NANA\V141_DEBUG_X64\\" /Fd"..\..\..\TEMP\NANA\V141_DEBUG_X64\NANA.PDB" /Gd /TP /FC C:\USERS\STEPHEN\DOCUMENTS\,ASTEPHEN_OTHER\QA\SJD_MODERN_EXPRESSIVE_CPP\QAMECPP_LABS\NANA\SOURCE\GUI\WIDGETS\FORM.CPP
^C:\USERS\STEPHEN\DOCUMENTS\,ASTEPHEN_OTHER\QA\SJD_MODERN_EXPRESSIVE_CPP\QAMECPP_LABS\NANA\SOURCE\GUI\WIDGETS\FRAME.CPP
/c /ZI /JMC /nologo /W3 /WX- /diagnostics:classic /Od /D _DEBUG /D _LIB /D _UNICODE /D UNICODE /Gm- /EHsc /RTC1 /MTd /GS /fp:precise /Zc:wchar_t /Zc:forScope /Zc:inline /Fo"..\..\..\TEMP\NANA\V141_DEBUG_X64\\" /Fd"..\..\..\TEMP\NANA\V141_DEBUG_X64\NANA.PDB" /Gd /TP /FC C:\USERS\STEPHEN\DOCUMENTS\,ASTEPHEN_OTHER\QA\SJD_MODERN_EXPRESSIVE_CPP\QAMECPP_LABS\NANA\SOURCE\GUI\WIDGETS\FRAME.CPP
^C:\USERS\STEPHEN\DOCUMENTS\,ASTEPHEN_OTHER\QA\SJD_MODERN_EXPRESSIVE_CPP\QAMECPP_LABS\NANA\SOURCE\GUI\WIDGETS\GROUP.CPP
/c /ZI /JMC /nologo /W3 /WX- /diagnostics:classic /Od /D _DEBUG /D _LIB /D _UNICODE /D UNICODE /Gm- /EHsc /RTC1 /MTd /GS /fp:precise /Zc:wchar_t /Zc:forScope /Zc:inline /Fo"..\..\..\TEMP\NANA\V141_DEBUG_X64\\" /Fd"..\..\..\TEMP\NANA\V141_DEBUG_X64\NANA.PDB" /Gd /TP /FC C:\USERS\STEPHEN\DOCUMENTS\,ASTEPHEN_OTHER\QA\SJD_MODERN_EXPRESSIVE_CPP\QAMECPP_LABS\NANA\SOURCE\GUI\WIDGETS\GROUP.CPP
^C:\USERS\STEPHEN\DOCUMENTS\,ASTEPHEN_OTHER\QA\SJD_MODERN_EXPRESSIVE_CPP\QAMECPP_LABS\NANA\SOURCE\GUI\WIDGETS\LABEL.CPP
/c /ZI /JMC /nologo /W3 /WX- /diagnostics:classic /Od /D _DEBUG /D _LIB /D _UNICODE /D UNICODE /Gm- /EHsc /RTC1 /MTd /GS /fp:precise /Zc:wchar_t /Zc:forScope /Zc:inline /Fo"..\..\..\TEMP\NANA\V141_DEBUG_X64\\" /Fd"..\..\..\TEMP\NANA\V141_DEBUG_X64\NANA.PDB" /Gd /TP /FC C:\USERS\STEPHEN\DOCUMENTS\,ASTEPHEN_OTHER\QA\SJD_MODERN_EXPRESSIVE_CPP\QAMECPP_LABS\NANA\SOURCE\GUI\WIDGETS\LABEL.CPP
^C:\USERS\STEPHEN\DOCUMENTS\,ASTEPHEN_OTHER\QA\SJD_MODERN_EXPRESSIVE_CPP\QAMECPP_LABS\NANA\SOURCE\GUI\WIDGETS\LISTBOX.CPP
/c /ZI /JMC /nologo /W3 /WX- /diagnostics:classic /Od /D _DEBUG /D _LIB /D _UNICODE /D UNICODE /Gm- /EHsc /RTC1 /MTd /GS /fp:precise /Zc:wchar_t /Zc:forScope /Zc:inline /Fo"..\..\..\TEMP\NANA\V141_DEBUG_X64\\" /Fd"..\..\..\TEMP\NANA\V141_DEBUG_X64\NANA.PDB" /Gd /TP /FC C:\USERS\STEPHEN\DOCUMENTS\,ASTEPHEN_OTHER\QA\SJD_MODERN_EXPRESSIVE_CPP\QAMECPP_LABS\NANA\SOURCE\GUI\WIDGETS\LISTBOX.CPP
^C:\USERS\STEPHEN\DOCUMENTS\,ASTEPHEN_OTHER\QA\SJD_MODERN_EXPRESSIVE_CPP\QAMECPP_LABS\NANA\SOURCE\GUI\WIDGETS\MENU.CPP
/c /ZI /JMC /nologo /W3 /WX- /diagnostics:classic /Od /D _DEBUG /D _LIB /D _UNICODE /D UNICODE /Gm- /EHsc /RTC1 /MTd /GS /fp:precise /Zc:wchar_t /Zc:forScope /Zc:inline /Fo"..\..\..\TEMP\NANA\V141_DEBUG_X64\\" /Fd"..\..\..\TEMP\NANA\V141_DEBUG_X64\NANA.PDB" /Gd /TP /FC C:\USERS\STEPHEN\DOCUMENTS\,ASTEPHEN_OTHER\QA\SJD_MODERN_EXPRESSIVE_CPP\QAMECPP_LABS\NANA\SOURCE\GUI\WIDGETS\MENU.CPP
^C:\USERS\STEPHEN\DOCUMENTS\,ASTEPHEN_OTHER\QA\SJD_MODERN_EXPRESSIVE_CPP\QAMECPP_LABS\NANA\SOURCE\GUI\WIDGETS\MENUBAR.CPP
/c /ZI /JMC /nologo /W3 /WX- /diagnostics:classic /Od /D _DEBUG /D _LIB /D _UNICODE /D UNICODE /Gm- /EHsc /RTC1 /MTd /GS /fp:precise /Zc:wchar_t /Zc:forScope /Zc:inline /Fo"..\..\..\TEMP\NANA\V141_DEBUG_X64\\" /Fd"..\..\..\TEMP\NANA\V141_DEBUG_X64\NANA.PDB" /Gd /TP /FC C:\USERS\STEPHEN\DOCUMENTS\,ASTEPHEN_OTHER\QA\SJD_MODERN_EXPRESSIVE_CPP\QAMECPP_LABS\NANA\SOURCE\GUI\WIDGETS\MENUBAR.CPP
^C:\USERS\STEPHEN\DOCUMENTS\,ASTEPHEN_OTHER\QA\SJD_MODERN_EXPRESSIVE_CPP\QAMECPP_LABS\NANA\SOURCE\GUI\WIDGETS\PANEL.CPP
/c /ZI /JMC /nologo /W3 /WX- /diagnostics:classic /Od /D _DEBUG /D _LIB /D _UNICODE /D UNICODE /Gm- /EHsc /RTC1 /MTd /GS /fp:precise /Zc:wchar_t /Zc:forScope /Zc:inline /Fo"..\..\..\TEMP\NANA\V141_DEBUG_X64\\" /Fd"..\..\..\TEMP\NANA\V141_DEBUG_X64\NANA.PDB" /Gd /TP /FC C:\USERS\STEPHEN\DOCUMENTS\,ASTEPHEN_OTHER\QA\SJD_MODERN_EXPRESSIVE_CPP\QAMECPP_LABS\NANA\SOURCE\GUI\WIDGETS\PANEL.CPP
^C:\USERS\STEPHEN\DOCUMENTS\,ASTEPHEN_OTHER\QA\SJD_MODERN_EXPRESSIVE_CPP\QAMECPP_LABS\NANA\SOURCE\GUI\WIDGETS\PICTURE.CPP
/c /ZI /JMC /nologo /W3 /WX- /diagnostics:classic /Od /D _DEBUG /D _LIB /D _UNICODE /D UNICODE /Gm- /EHsc /RTC1 /MTd /GS /fp:precise /Zc:wchar_t /Zc:forScope /Zc:inline /Fo"..\..\..\TEMP\NANA\V141_DEBUG_X64\\" /Fd"..\..\..\TEMP\NANA\V141_DEBUG_X64\NANA.PDB" /Gd /TP /FC C:\USERS\STEPHEN\DOCUMENTS\,ASTEPHEN_OTHER\QA\SJD_MODERN_EXPRESSIVE_CPP\QAMECPP_LABS\NANA\SOURCE\GUI\WIDGETS\PICTURE.CPP
^C:\USERS\STEPHEN\DOCUMENTS\,ASTEPHEN_OTHER\QA\SJD_MODERN_EXPRESSIVE_CPP\QAMECPP_LABS\NANA\SOURCE\GUI\WIDGETS\PROGRESS.CPP
/c /ZI /JMC /nologo /W3 /WX- /diagnostics:classic /Od /D _DEBUG /D _LIB /D _UNICODE /D UNICODE /Gm- /EHsc /RTC1 /MTd /GS /fp:precise /Zc:wchar_t /Zc:forScope /Zc:inline /Fo"..\..\..\TEMP\NANA\V141_DEBUG_X64\\" /Fd"..\..\..\TEMP\NANA\V141_DEBUG_X64\NANA.PDB" /Gd /TP /FC C:\USERS\STEPHEN\DOCUMENTS\,ASTEPHEN_OTHER\QA\SJD_MODERN_EXPRESSIVE_CPP\QAMECPP_LABS\NANA\SOURCE\GUI\WIDGETS\PROGRESS.CPP
^C:\USERS\STEPHEN\DOCUMENTS\,ASTEPHEN_OTHER\QA\SJD_MODERN_EXPRESSIVE_CPP\QAMECPP_LABS\NANA\SOURCE\GUI\WIDGETS\SCROLL.CPP
/c /ZI /JMC /nologo /W3 /WX- /diagnostics:classic /Od /D _DEBUG /D _LIB /D _UNICODE /D UNICODE /Gm- /EHsc /RTC1 /MTd /GS /fp:precise /Zc:wchar_t /Zc:forScope /Zc:inline /Fo"..\..\..\TEMP\NANA\V141_DEBUG_X64\\" /Fd"..\..\..\TEMP\NANA\V141_DEBUG_X64\NANA.PDB" /Gd /TP /FC C:\USERS\STEPHEN\DOCUMENTS\,ASTEPHEN_OTHER\QA\SJD_MODERN_EXPRESSIVE_CPP\QAMECPP_LABS\NANA\SOURCE\GUI\WIDGETS\SCROLL.CPP
^C:\USERS\STEPHEN\DOCUMENTS\,ASTEPHEN_OTHER\QA\SJD_MODERN_EXPRESSIVE_CPP\QAMECPP_LABS\NANA\SOURCE\GUI\WIDGETS\SKELETONS\CONTENT_VIEW.CPP
/c /ZI /JMC /nologo /W3 /WX- /diagnostics:classic /Od /D _DEBUG /D _LIB /D _UNICODE /D UNICODE /Gm- /EHsc /RTC1 /MTd /GS /fp:precise /Zc:wchar_t /Zc:forScope /Zc:inline /Fo"..\..\..\TEMP\NANA\V141_DEBUG_X64\\" /Fd"..\..\..\TEMP\NANA\V141_DEBUG_X64\NANA.PDB" /Gd /TP /FC C:\USERS\STEPHEN\DOCUMENTS\,ASTEPHEN_OTHER\QA\SJD_MODERN_EXPRESSIVE_CPP\QAMECPP_LABS\NANA\SOURCE\GUI\WIDGETS\SKELETONS\CONTENT_VIEW.CPP
^C:\USERS\STEPHEN\DOCUMENTS\,ASTEPHEN_OTHER\QA\SJD_MODERN_EXPRESSIVE_CPP\QAMECPP_LABS\NANA\SOURCE\GUI\WIDGETS\SKELETONS\TEXT_EDITOR.CPP
/c /ZI /JMC /nologo /W3 /WX- /diagnostics:classic /Od /D _DEBUG /D _LIB /D _UNICODE /D UNICODE /Gm- /EHsc /RTC1 /MTd /GS /fp:precise /Zc:wchar_t /Zc:forScope /Zc:inline /Fo"..\..\..\TEMP\NANA\V141_DEBUG_X64\\" /Fd"..\..\..\TEMP\NANA\V141_DEBUG_X64\NANA.PDB" /Gd /TP /FC C:\USERS\STEPHEN\DOCUMENTS\,ASTEPHEN_OTHER\QA\SJD_MODERN_EXPRESSIVE_CPP\QAMECPP_LABS\NANA\SOURCE\GUI\WIDGETS\SKELETONS\TEXT_EDITOR.CPP
^C:\USERS\STEPHEN\DOCUMENTS\,ASTEPHEN_OTHER\QA\SJD_MODERN_EXPRESSIVE_CPP\QAMECPP_LABS\NANA\SOURCE\GUI\WIDGETS\SLIDER.CPP
/c /ZI /JMC /nologo /W3 /WX- /diagnostics:classic /Od /D _DEBUG /D _LIB /D _UNICODE /D UNICODE /Gm- /EHsc /RTC1 /MTd /GS /fp:precise /Zc:wchar_t /Zc:forScope /Zc:inline /Fo"..\..\..\TEMP\NANA\V141_DEBUG_X64\\" /Fd"..\..\..\TEMP\NANA\V141_DEBUG_X64\NANA.PDB" /Gd /TP /FC C:\USERS\STEPHEN\DOCUMENTS\,ASTEPHEN_OTHER\QA\SJD_MODERN_EXPRESSIVE_CPP\QAMECPP_LABS\NANA\SOURCE\GUI\WIDGETS\SLIDER.CPP
^C:\USERS\STEPHEN\DOCUMENTS\,ASTEPHEN_OTHER\QA\SJD_MODERN_EXPRESSIVE_CPP\QAMECPP_LABS\NANA\SOURCE\GUI\WIDGETS\SPINBOX.CPP
/c /ZI /JMC /nologo /W3 /WX- /diagnostics:classic /Od /D _DEBUG /D _LIB /D _UNICODE /D UNICODE /Gm- /EHsc /RTC1 /MTd /GS /fp:precise /Zc:wchar_t /Zc:forScope /Zc:inline /Fo"..\..\..\TEMP\NANA\V141_DEBUG_X64\\" /Fd"..\..\..\TEMP\NANA\V141_DEBUG_X64\NANA.PDB" /Gd /TP /FC C:\USERS\STEPHEN\DOCUMENTS\,ASTEPHEN_OTHER\QA\SJD_MODERN_EXPRESSIVE_CPP\QAMECPP_LABS\NANA\SOURCE\GUI\WIDGETS\SPINBOX.CPP
^C:\USERS\STEPHEN\DOCUMENTS\,ASTEPHEN_OTHER\QA\SJD_MODERN_EXPRESSIVE_CPP\QAMECPP_LABS\NANA\SOURCE\GUI\WIDGETS\TABBAR.CPP
/c /ZI /JMC /nologo /W3 /WX- /diagnostics:classic /Od /D _DEBUG /D _LIB /D _UNICODE /D UNICODE /Gm- /EHsc /RTC1 /MTd /GS /fp:precise /Zc:wchar_t /Zc:forScope /Zc:inline /Fo"..\..\..\TEMP\NANA\V141_DEBUG_X64\\" /Fd"..\..\..\TEMP\NANA\V141_DEBUG_X64\NANA.PDB" /Gd /TP /FC C:\USERS\STEPHEN\DOCUMENTS\,ASTEPHEN_OTHER\QA\SJD_MODERN_EXPRESSIVE_CPP\QAMECPP_LABS\NANA\SOURCE\GUI\WIDGETS\TABBAR.CPP
^C:\USERS\STEPHEN\DOCUMENTS\,ASTEPHEN_OTHER\QA\SJD_MODERN_EXPRESSIVE_CPP\QAMECPP_LABS\NANA\SOURCE\GUI\WIDGETS\TEXTBOX.CPP
/c /ZI /JMC /nologo /W3 /WX- /diagnostics:classic /Od /D _DEBUG /D _LIB /D _UNICODE /D UNICODE /Gm- /EHsc /RTC1 /MTd /GS /fp:precise /Zc:wchar_t /Zc:forScope /Zc:inline /Fo"..\..\..\TEMP\NANA\V141_DEBUG_X64\\" /Fd"..\..\..\TEMP\NANA\V141_DEBUG_X64\NANA.PDB" /Gd /TP /FC C:\USERS\STEPHEN\DOCUMENTS\,ASTEPHEN_OTHER\QA\SJD_MODERN_EXPRESSIVE_CPP\QAMECPP_LABS\NANA\SOURCE\GUI\WIDGETS\TEXTBOX.CPP
^C:\USERS\STEPHEN\DOCUMENTS\,ASTEPHEN_OTHER\QA\SJD_MODERN_EXPRESSIVE_CPP\QAMECPP_LABS\NANA\SOURCE\GUI\WIDGETS\TOOLBAR.CPP
/c /ZI /JMC /nologo /W3 /WX- /diagnostics:classic /Od /D _DEBUG /D _LIB /D _UNICODE /D UNICODE /Gm- /EHsc /RTC1 /MTd /GS /fp:precise /Zc:wchar_t /Zc:forScope /Zc:inline /Fo"..\..\..\TEMP\NANA\V141_DEBUG_X64\\" /Fd"..\..\..\TEMP\NANA\V141_DEBUG_X64\NANA.PDB" /Gd /TP /FC C:\USERS\STEPHEN\DOCUMENTS\,ASTEPHEN_OTHER\QA\SJD_MODERN_EXPRESSIVE_CPP\QAMECPP_LABS\NANA\SOURCE\GUI\WIDGETS\TOOLBAR.CPP
^C:\USERS\STEPHEN\DOCUMENTS\,ASTEPHEN_OTHER\QA\SJD_MODERN_EXPRESSIVE_CPP\QAMECPP_LABS\NANA\SOURCE\GUI\WIDGETS\TREEBOX.CPP
/c /ZI /JMC /nologo /W3 /WX- /diagnostics:classic /Od /D _DEBUG /D _LIB /D _UNICODE /D UNICODE /Gm- /EHsc /RTC1 /MTd /GS /fp:precise /Zc:wchar_t /Zc:forScope /Zc:inline /Fo"..\..\..\TEMP\NANA\V141_DEBUG_X64\\" /Fd"..\..\..\TEMP\NANA\V141_DEBUG_X64\NANA.PDB" /Gd /TP /FC C:\USERS\STEPHEN\DOCUMENTS\,ASTEPHEN_OTHER\QA\SJD_MODERN_EXPRESSIVE_CPP\QAMECPP_LABS\NANA\SOURCE\GUI\WIDGETS\TREEBOX.CPP
^C:\USERS\STEPHEN\DOCUMENTS\,ASTEPHEN_OTHER\QA\SJD_MODERN_EXPRESSIVE_CPP\QAMECPP_LABS\NANA\SOURCE\GUI\WIDGETS\WIDGET.CPP
/c /ZI /JMC /nologo /W3 /WX- /diagnostics:classic /Od /D _DEBUG /D _LIB /D _UNICODE /D UNICODE /Gm- /EHsc /RTC1 /MTd /GS /fp:precise /Zc:wchar_t /Zc:forScope /Zc:inline /Fo"..\..\..\TEMP\NANA\V141_DEBUG_X64\\" /Fd"..\..\..\TEMP\NANA\V141_DEBUG_X64\NANA.PDB" /Gd /TP /FC C:\USERS\STEPHEN\DOCUMENTS\,ASTEPHEN_OTHER\QA\SJD_MODERN_EXPRESSIVE_CPP\QAMECPP_LABS\NANA\SOURCE\GUI\WIDGETS\WIDGET.CPP
^C:\USERS\STEPHEN\DOCUMENTS\,ASTEPHEN_OTHER\QA\SJD_MODERN_EXPRESSIVE_CPP\QAMECPP_LABS\NANA\SOURCE\GUI\WVL.CPP
/c /ZI /JMC /nologo /W3 /WX- /diagnostics:classic /Od /D _DEBUG /D _LIB /D _UNICODE /D UNICODE /Gm- /EHsc /RTC1 /MTd /GS /fp:precise /Zc:wchar_t /Zc:forScope /Zc:inline /Fo"..\..\..\TEMP\NANA\V141_DEBUG_X64\\" /Fd"..\..\..\TEMP\NANA\V141_DEBUG_X64\NANA.PDB" /Gd /TP /FC C:\USERS\STEPHEN\DOCUMENTS\,ASTEPHEN_OTHER\QA\SJD_MODERN_EXPRESSIVE_CPP\QAMECPP_LABS\NANA\SOURCE\GUI\WVL.CPP
^C:\USERS\STEPHEN\DOCUMENTS\,ASTEPHEN_OTHER\QA\SJD_MODERN_EXPRESSIVE_CPP\QAMECPP_LABS\NANA\SOURCE\INTERNATIONALIZATION.CPP
/c /ZI /JMC /nologo /W3 /WX- /diagnostics:classic /Od /D _DEBUG /D _LIB /D _UNICODE /D UNICODE /Gm- /EHsc /RTC1 /MTd /GS /fp:precise /Zc:wchar_t /Zc:forScope /Zc:inline /Fo"..\..\..\TEMP\NANA\V141_DEBUG_X64\\" /Fd"..\..\..\TEMP\NANA\V141_DEBUG_X64\NANA.PDB" /Gd /TP /FC C:\USERS\STEPHEN\DOCUMENTS\,ASTEPHEN_OTHER\QA\SJD_MODERN_EXPRESSIVE_CPP\QAMECPP_LABS\NANA\SOURCE\INTERNATIONALIZATION.CPP
^C:\USERS\STEPHEN\DOCUMENTS\,ASTEPHEN_OTHER\QA\SJD_MODERN_EXPRESSIVE_CPP\QAMECPP_LABS\NANA\SOURCE\PAINT\DETAIL\IMAGE_PROCESS_PROVIDER.CPP
/c /ZI /JMC /nologo /W3 /WX- /diagnostics:classic /Od /D _DEBUG /D _LIB /D _UNICODE /D UNICODE /Gm- /EHsc /RTC1 /MTd /GS /fp:precise /Zc:wchar_t /Zc:forScope /Zc:inline /Fo"..\..\..\TEMP\NANA\V141_DEBUG_X64\\" /Fd"..\..\..\TEMP\NANA\V141_DEBUG_X64\NANA.PDB" /Gd /TP /FC C:\USERS\STEPHEN\DOCUMENTS\,ASTEPHEN_OTHER\QA\SJD_MODERN_EXPRESSIVE_CPP\QAMECPP_LABS\NANA\SOURCE\PAINT\DETAIL\IMAGE_PROCESS_PROVIDER.CPP
^C:\USERS\STEPHEN\DOCUMENTS\,ASTEPHEN_OTHER\QA\SJD_MODERN_EXPRESSIVE_CPP\QAMECPP_LABS\NANA\SOURCE\PAINT\DETAIL\NATIVE_PAINT_INTERFACE.CPP
/c /ZI /JMC /nologo /W3 /WX- /diagnostics:classic /Od /D _DEBUG /D _LIB /D _UNICODE /D UNICODE /Gm- /EHsc /RTC1 /MTd /GS /fp:precise /Zc:wchar_t /Zc:forScope /Zc:inline /Fo"..\..\..\TEMP\NANA\V141_DEBUG_X64\\" /Fd"..\..\..\TEMP\NANA\V141_DEBUG_X64\NANA.PDB" /Gd /TP /FC C:\USERS\STEPHEN\DOCUMENTS\,ASTEPHEN_OTHER\QA\SJD_MODERN_EXPRESSIVE_CPP\QAMECPP_LABS\NANA\SOURCE\PAINT\DETAIL\NATIVE_PAINT_INTERFACE.CPP
^C:\USERS\STEPHEN\DOCUMENTS\,ASTEPHEN_OTHER\QA\SJD_MODERN_EXPRESSIVE_CPP\QAMECPP_LABS\NANA\SOURCE\PAINT\GRAPHICS.CPP
/c /ZI /JMC /nologo /W3 /WX- /diagnostics:classic /Od /D _DEBUG /D _LIB /D _UNICODE /D UNICODE /Gm- /EHsc /RTC1 /MTd /GS /fp:precise /Zc:wchar_t /Zc:forScope /Zc:inline /Fo"..\..\..\TEMP\NANA\V141_DEBUG_X64\\" /Fd"..\..\..\TEMP\NANA\V141_DEBUG_X64\NANA.PDB" /Gd /TP /FC C:\USERS\STEPHEN\DOCUMENTS\,ASTEPHEN_OTHER\QA\SJD_MODERN_EXPRESSIVE_CPP\QAMECPP_LABS\NANA\SOURCE\PAINT\GRAPHICS.CPP
^C:\USERS\STEPHEN\DOCUMENTS\,ASTEPHEN_OTHER\QA\SJD_MODERN_EXPRESSIVE_CPP\QAMECPP_LABS\NANA\SOURCE\PAINT\IMAGE.CPP
/c /ZI /JMC /nologo /W3 /WX- /diagnostics:classic /Od /D _DEBUG /D _LIB /D _UNICODE /D UNICODE /Gm- /EHsc /RTC1 /MTd /GS /fp:precise /Zc:wchar_t /Zc:forScope /Zc:inline /Fo"..\..\..\TEMP\NANA\V141_DEBUG_X64\\" /Fd"..\..\..\TEMP\NANA\V141_DEBUG_X64\NANA.PDB" /Gd /TP /FC C:\USERS\STEPHEN\DOCUMENTS\,ASTEPHEN_OTHER\QA\SJD_MODERN_EXPRESSIVE_CPP\QAMECPP_LABS\NANA\SOURCE\PAINT\IMAGE.CPP
^C:\USERS\STEPHEN\DOCUMENTS\,ASTEPHEN_OTHER\QA\SJD_MODERN_EXPRESSIVE_CPP\QAMECPP_LABS\NANA\SOURCE\PAINT\IMAGE_PROCESS_SELECTOR.CPP
/c /ZI /JMC /nologo /W3 /WX- /diagnostics:classic /Od /D _DEBUG /D _LIB /D _UNICODE /D UNICODE /Gm- /EHsc /RTC1 /MTd /GS /fp:precise /Zc:wchar_t /Zc:forScope /Zc:inline /Fo"..\..\..\TEMP\NANA\V141_DEBUG_X64\\" /Fd"..\..\..\TEMP\NANA\V141_DEBUG_X64\NANA.PDB" /Gd /TP /FC C:\USERS\STEPHEN\DOCUMENTS\,ASTEPHEN_OTHER\QA\SJD_MODERN_EXPRESSIVE_CPP\QAMECPP_LABS\NANA\SOURCE\PAINT\IMAGE_PROCESS_SELECTOR.CPP
^C:\USERS\STEPHEN\DOCUMENTS\,ASTEPHEN_OTHER\QA\SJD_MODERN_EXPRESSIVE_CPP\QAMECPP_LABS\NANA\SOURCE\PAINT\PIXEL_BUFFER.CPP
/c /ZI /JMC /nologo /W3 /WX- /diagnostics:classic /Od /D _DEBUG /D _LIB /D _UNICODE /D UNICODE /Gm- /EHsc /RTC1 /MTd /GS /fp:precise /Zc:wchar_t /Zc:forScope /Zc:inline /Fo"..\..\..\TEMP\NANA\V141_DEBUG_X64\\" /Fd"..\..\..\TEMP\NANA\V141_DEBUG_X64\NANA.PDB" /Gd /TP /FC C:\USERS\STEPHEN\DOCUMENTS\,ASTEPHEN_OTHER\QA\SJD_MODERN_EXPRESSIVE_CPP\QAMECPP_LABS\NANA\SOURCE\PAINT\PIXEL_BUFFER.CPP
^C:\USERS\STEPHEN\DOCUMENTS\,ASTEPHEN_OTHER\QA\SJD_MODERN_EXPRESSIVE_CPP\QAMECPP_LABS\NANA\SOURCE\PAINT\TEXT_RENDERER.CPP
/c /ZI /JMC /nologo /W3 /WX- /diagnostics:classic /Od /D _DEBUG /D _LIB /D _UNICODE /D UNICODE /Gm- /EHsc /RTC1 /MTd /GS /fp:precise /Zc:wchar_t /Zc:forScope /Zc:inline /Fo"..\..\..\TEMP\NANA\V141_DEBUG_X64\\" /Fd"..\..\..\TEMP\NANA\V141_DEBUG_X64\NANA.PDB" /Gd /TP /FC C:\USERS\STEPHEN\DOCUMENTS\,ASTEPHEN_OTHER\QA\SJD_MODERN_EXPRESSIVE_CPP\QAMECPP_LABS\NANA\SOURCE\PAINT\TEXT_RENDERER.CPP
^C:\USERS\STEPHEN\DOCUMENTS\,ASTEPHEN_OTHER\QA\SJD_MODERN_EXPRESSIVE_CPP\QAMECPP_LABS\NANA\SOURCE\STDC++.CPP
/c /ZI /JMC /nologo /W3 /WX- /diagnostics:classic /Od /D _DEBUG /D _LIB /D _UNICODE /D UNICODE /Gm- /EHsc /RTC1 /MTd /GS /fp:precise /Zc:wchar_t /Zc:forScope /Zc:inline /Fo"..\..\..\TEMP\NANA\V141_DEBUG_X64\\" /Fd"..\..\..\TEMP\NANA\V141_DEBUG_X64\NANA.PDB" /Gd /TP /FC C:\USERS\STEPHEN\DOCUMENTS\,ASTEPHEN_OTHER\QA\SJD_MODERN_EXPRESSIVE_CPP\QAMECPP_LABS\NANA\SOURCE\STDC++.CPP
^C:\USERS\STEPHEN\DOCUMENTS\,ASTEPHEN_OTHER\QA\SJD_MODERN_EXPRESSIVE_CPP\QAMECPP_LABS\NANA\SOURCE\SYSTEM\DATAEXCH.CPP
/c /ZI /JMC /nologo /W3 /WX- /diagnostics:classic /Od /D _DEBUG /D _LIB /D _UNICODE /D UNICODE /Gm- /EHsc /RTC1 /MTd /GS /fp:precise /Zc:wchar_t /Zc:forScope /Zc:inline /Fo"..\..\..\TEMP\NANA\V141_DEBUG_X64\\" /Fd"..\..\..\TEMP\NANA\V141_DEBUG_X64\NANA.PDB" /Gd /TP /FC C:\USERS\STEPHEN\DOCUMENTS\,ASTEPHEN_OTHER\QA\SJD_MODERN_EXPRESSIVE_CPP\QAMECPP_LABS\NANA\SOURCE\SYSTEM\DATAEXCH.CPP
^C:\USERS\STEPHEN\DOCUMENTS\,ASTEPHEN_OTHER\QA\SJD_MODERN_EXPRESSIVE_CPP\QAMECPP_LABS\NANA\SOURCE\SYSTEM\PLATFORM.CPP
/c /ZI /JMC /nologo /W3 /WX- /diagnostics:classic /Od /D _DEBUG /D _LIB /D _UNICODE /D UNICODE /Gm- /EHsc /RTC1 /MTd /GS /fp:precise /Zc:wchar_t /Zc:forScope /Zc:inline /Fo"..\..\..\TEMP\NANA\V141_DEBUG_X64\\" /Fd"..\..\..\TEMP\NANA\V141_DEBUG_X64\NANA.PDB" /Gd /TP /FC C:\USERS\STEPHEN\DOCUMENTS\,ASTEPHEN_OTHER\QA\SJD_MODERN_EXPRESSIVE_CPP\QAMECPP_LABS\NANA\SOURCE\SYSTEM\PLATFORM.CPP
^C:\USERS\STEPHEN\DOCUMENTS\,ASTEPHEN_OTHER\QA\SJD_MODERN_EXPRESSIVE_CPP\QAMECPP_LABS\NANA\SOURCE\SYSTEM\SHARED_WRAPPER.CPP
/c /ZI /JMC /nologo /W3 /WX- /diagnostics:classic /Od /D _DEBUG /D _LIB /D _UNICODE /D UNICODE /Gm- /EHsc /RTC1 /MTd /GS /fp:precise /Zc:wchar_t /Zc:forScope /Zc:inline /Fo"..\..\..\TEMP\NANA\V141_DEBUG_X64\\" /Fd"..\..\..\TEMP\NANA\V141_DEBUG_X64\NANA.PDB" /Gd /TP /FC C:\USERS\STEPHEN\DOCUMENTS\,ASTEPHEN_OTHER\QA\SJD_MODERN_EXPRESSIVE_CPP\QAMECPP_LABS\NANA\SOURCE\SYSTEM\SHARED_WRAPPER.CPP
^C:\USERS\STEPHEN\DOCUMENTS\,ASTEPHEN_OTHER\QA\SJD_MODERN_EXPRESSIVE_CPP\QAMECPP_LABS\NANA\SOURCE\SYSTEM\TIMEPIECE.CPP
/c /ZI /JMC /nologo /W3 /WX- /diagnostics:classic /Od /D _DEBUG /D _LIB /D _UNICODE /D UNICODE /Gm- /EHsc /RTC1 /MTd /GS /fp:precise /Zc:wchar_t /Zc:forScope /Zc:inline /Fo"..\..\..\TEMP\NANA\V141_DEBUG_X64\\" /Fd"..\..\..\TEMP\NANA\V141_DEBUG_X64\NANA.PDB" /Gd /TP /FC C:\USERS\STEPHEN\DOCUMENTS\,ASTEPHEN_OTHER\QA\SJD_MODERN_EXPRESSIVE_CPP\QAMECPP_LABS\NANA\SOURCE\SYSTEM\TIMEPIECE.CPP
^C:\USERS\STEPHEN\DOCUMENTS\,ASTEPHEN_OTHER\QA\SJD_MODERN_EXPRESSIVE_CPP\QAMECPP_LABS\NANA\SOURCE\THREADS\POOL.CPP
/c /ZI /JMC /nologo /W3 /WX- /diagnostics:classic /Od /D _DEBUG /D _LIB /D _UNICODE /D UNICODE /Gm- /EHsc /RTC1 /MTd /GS /fp:precise /Zc:wchar_t /Zc:forScope /Zc:inline /Fo"..\..\..\TEMP\NANA\V141_DEBUG_X64\\" /Fd"..\..\..\TEMP\NANA\V141_DEBUG_X64\NANA.PDB" /Gd /TP /FC C:\USERS\STEPHEN\DOCUMENTS\,ASTEPHEN_OTHER\QA\SJD_MODERN_EXPRESSIVE_CPP\QAMECPP_LABS\NANA\SOURCE\THREADS\POOL.CPP
^C:\USERS\STEPHEN\DOCUMENTS\,ASTEPHEN_OTHER\QA\SJD_MODERN_EXPRESSIVE_CPP\QAMECPP_LABS\NANA\SOURCE\UNICODE_BIDI.CPP
/c /ZI /JMC /nologo /W3 /WX- /diagnostics:classic /Od /D _DEBUG /D _LIB /D _UNICODE /D UNICODE /Gm- /EHsc /RTC1 /MTd /GS /fp:precise /Zc:wchar_t /Zc:forScope /Zc:inline /Fo"..\..\..\TEMP\NANA\V141_DEBUG_X64\\" /Fd"..\..\..\TEMP\NANA\V141_DEBUG_X64\NANA.PDB" /Gd /TP /FC C:\USERS\STEPHEN\DOCUMENTS\,ASTEPHEN_OTHER\QA\SJD_MODERN_EXPRESSIVE_CPP\QAMECPP_LABS\NANA\SOURCE\UNICODE_BIDI.CPP
